%YAML 1.1
%TAG !u! tag:unity3d.com,2011:
--- !u!1 &3231710287695744086
GameObject:
  m_ObjectHideFlags: 0
  m_CorrespondingSourceObject: {fileID: 0}
  m_PrefabInstance: {fileID: 0}
  m_PrefabAsset: {fileID: 0}
  serializedVersion: 6
  m_Component:
  - component: {fileID: 3231710287695744074}
  - component: {fileID: 3231710287695744073}
  - component: {fileID: 3231710287695744072}
  - component: {fileID: 3231710287695744087}
  - component: {fileID: 3231710287695744075}
  m_Layer: 0
  m_Name: Player
  m_TagString: Player
  m_Icon: {fileID: 0}
  m_NavMeshLayer: 0
  m_StaticEditorFlags: 0
  m_IsActive: 1
--- !u!4 &3231710287695744074
Transform:
  m_ObjectHideFlags: 0
  m_CorrespondingSourceObject: {fileID: 0}
  m_PrefabInstance: {fileID: 0}
  m_PrefabAsset: {fileID: 0}
  m_GameObject: {fileID: 3231710287695744086}
  m_LocalRotation: {x: 0, y: 0, z: 0, w: 1}
  m_LocalPosition: {x: 0, y: 0, z: 0}
  m_LocalScale: {x: 7, y: 7, z: 1}
  m_Children: []
  m_Father: {fileID: 0}
  m_RootOrder: 0
  m_LocalEulerAnglesHint: {x: 0, y: 0, z: 0}
--- !u!212 &3231710287695744073
SpriteRenderer:
  m_ObjectHideFlags: 0
  m_CorrespondingSourceObject: {fileID: 0}
  m_PrefabInstance: {fileID: 0}
  m_PrefabAsset: {fileID: 0}
  m_GameObject: {fileID: 3231710287695744086}
  m_Enabled: 1
  m_CastShadows: 0
  m_ReceiveShadows: 0
  m_DynamicOccludee: 1
  m_MotionVectors: 1
  m_LightProbeUsage: 1
  m_ReflectionProbeUsage: 1
  m_RayTracingMode: 0
  m_RenderingLayerMask: 1
  m_RendererPriority: 0
  m_Materials:
  - {fileID: 10754, guid: 0000000000000000f000000000000000, type: 0}
  m_StaticBatchInfo:
    firstSubMesh: 0
    subMeshCount: 0
  m_StaticBatchRoot: {fileID: 0}
  m_ProbeAnchor: {fileID: 0}
  m_LightProbeVolumeOverride: {fileID: 0}
  m_ScaleInLightmap: 1
  m_ReceiveGI: 1
  m_PreserveUVs: 0
  m_IgnoreNormalsForChartDetection: 0
  m_ImportantGI: 0
  m_StitchLightmapSeams: 1
  m_SelectedEditorRenderState: 0
  m_MinimumChartSize: 4
  m_AutoUVMaxDistance: 0.5
  m_AutoUVMaxAngle: 89
  m_LightmapParameters: {fileID: 0}
  m_SortingLayerID: 0
  m_SortingLayer: 0
  m_SortingOrder: 1
  m_Sprite: {fileID: 21300000, guid: d5c6af79397e4244f88929e15e9e769f, type: 3}
  m_Color: {r: 1, g: 1, b: 1, a: 1}
  m_FlipX: 0
  m_FlipY: 0
  m_DrawMode: 0
  m_Size: {x: 1, y: 1}
  m_AdaptiveModeThreshold: 0.5
  m_SpriteTileMode: 0
  m_WasSpriteAssigned: 1
  m_MaskInteraction: 0
  m_SpriteSortPoint: 0
--- !u!61 &3231710287695744072
BoxCollider2D:
  m_ObjectHideFlags: 0
  m_CorrespondingSourceObject: {fileID: 0}
  m_PrefabInstance: {fileID: 0}
  m_PrefabAsset: {fileID: 0}
  m_GameObject: {fileID: 3231710287695744086}
  m_Enabled: 1
  m_Density: 1
  m_Material: {fileID: 0}
  m_IsTrigger: 0
  m_UsedByEffector: 0
  m_UsedByComposite: 0
  m_Offset: {x: 0, y: 0}
  m_SpriteTilingProperty:
    border: {x: 0, y: 0, z: 0, w: 0}
    pivot: {x: 0.5, y: 0.5}
    oldSize: {x: 0.16, y: 0.16}
    newSize: {x: 1, y: 1}
    adaptiveTilingThreshold: 0.5
    drawMode: 0
    adaptiveTiling: 0
  m_AutoTiling: 0
  serializedVersion: 2
  m_Size: {x: 0.16, y: 0.16}
  m_EdgeRadius: 0
--- !u!50 &3231710287695744087
Rigidbody2D:
  serializedVersion: 4
  m_ObjectHideFlags: 0
  m_CorrespondingSourceObject: {fileID: 0}
  m_PrefabInstance: {fileID: 0}
  m_PrefabAsset: {fileID: 0}
  m_GameObject: {fileID: 3231710287695744086}
  m_BodyType: 0
  m_Simulated: 1
  m_UseFullKinematicContacts: 0
  m_UseAutoMass: 0
  m_Mass: 1
  m_LinearDrag: 0
  m_AngularDrag: 0.05
  m_GravityScale: 1
  m_Material: {fileID: 0}
  m_Interpolate: 0
  m_SleepingMode: 1
  m_CollisionDetection: 0
  m_Constraints: 4
--- !u!114 &3231710287695744075
MonoBehaviour:
  m_ObjectHideFlags: 0
  m_CorrespondingSourceObject: {fileID: 0}
  m_PrefabInstance: {fileID: 0}
  m_PrefabAsset: {fileID: 0}
  m_GameObject: {fileID: 3231710287695744086}
  m_Enabled: 1
  m_EditorHideFlags: 0
  m_Script: {fileID: 11500000, guid: 819ec2b956b4dc8448b4dc9a47dbc38a, type: 3}
  m_Name: 
  m_EditorClassIdentifier: 
  playerSprites:
  - {fileID: 21300000, guid: d5c6af79397e4244f88929e15e9e769f, type: 3}
  - {fileID: 21300000, guid: d3984a9156a0f1549bdce5782f8fc5cf, type: 3}
  - {fileID: 21300000, guid: 35f36a37a92afb24f8cdd5ae7005700b, type: 3}
  - {fileID: 21300000, guid: f9c28bdc0b2427e449c4f71596a19692, type: 3}
  - {fileID: 21300000, guid: 95f53067f6e393644ba01309ead8f2d8, type: 3}
  - {fileID: 21300000, guid: 5dd333bfd10df6440917a8dc2ed29e2c, type: 3}
  - {fileID: 21300000, guid: 35769e2cf7b5d4b4b8cd753e955e08dc, type: 3}
  - {fileID: 21300000, guid: fa529dc8b14cfc64f9c8735f311e389d, type: 3}
  - {fileID: 21300000, guid: 75d61711a02aaef46828f976216b0bd8, type: 3}
  - {fileID: 21300000, guid: 06f1c49d5e38b344793b2a11b5248d3f, type: 3}
  - {fileID: 21300000, guid: 9ee3aaad6b96fef4e96d2298e82efb71, type: 3}
  - {fileID: 21300000, guid: 7ed4e11d273078a4d93a8307656b4a22, type: 3}
  - {fileID: 21300000, guid: 2f605fd37569832409a5d53971c8da72, type: 3}
  - {fileID: 21300000, guid: 574172509b738984bb8080564ab86615, type: 3}
  deathSprite: {fileID: 21300000, guid: c1787bf01ffc94e438b34b8cf79425eb, type: 3}
  groundMask:
    serializedVersion: 2
    m_Bits: 256
  isHomeMenuAnimation: 0
