%YAML 1.1
%TAG !u! tag:unity3d.com,2011:
--- !u!29 &1
OcclusionCullingSettings:
  m_ObjectHideFlags: 0
  serializedVersion: 2
  m_OcclusionBakeSettings:
    smallestOccluder: 5
    smallestHole: 0.25
    backfaceThreshold: 100
  m_SceneGUID: 00000000000000000000000000000000
  m_OcclusionCullingData: {fileID: 0}
--- !u!104 &2
RenderSettings:
  m_ObjectHideFlags: 0
  serializedVersion: 9
  m_Fog: 0
  m_FogColor: {r: 0.5, g: 0.5, b: 0.5, a: 1}
  m_FogMode: 3
  m_FogDensity: 0.01
  m_LinearFogStart: 0
  m_LinearFogEnd: 300
  m_AmbientSkyColor: {r: 0.212, g: 0.227, b: 0.259, a: 1}
  m_AmbientEquatorColor: {r: 0.114, g: 0.125, b: 0.133, a: 1}
  m_AmbientGroundColor: {r: 0.047, g: 0.043, b: 0.035, a: 1}
  m_AmbientIntensity: 1
  m_AmbientMode: 3
  m_SubtractiveShadowColor: {r: 0.42, g: 0.478, b: 0.627, a: 1}
  m_SkyboxMaterial: {fileID: 0}
  m_HaloStrength: 0.5
  m_FlareStrength: 1
  m_FlareFadeSpeed: 3
  m_HaloTexture: {fileID: 0}
  m_SpotCookie: {fileID: 10001, guid: 0000000000000000e000000000000000, type: 0}
  m_DefaultReflectionMode: 0
  m_DefaultReflectionResolution: 128
  m_ReflectionBounces: 1
  m_ReflectionIntensity: 1
  m_CustomReflection: {fileID: 0}
  m_Sun: {fileID: 0}
  m_IndirectSpecularColor: {r: 0, g: 0, b: 0, a: 1}
  m_UseRadianceAmbientProbe: 0
--- !u!157 &3
LightmapSettings:
  m_ObjectHideFlags: 0
  serializedVersion: 11
  m_GIWorkflowMode: 1
  m_GISettings:
    serializedVersion: 2
    m_BounceScale: 1
    m_IndirectOutputScale: 1
    m_AlbedoBoost: 1
    m_EnvironmentLightingMode: 0
    m_EnableBakedLightmaps: 0
    m_EnableRealtimeLightmaps: 0
  m_LightmapEditorSettings:
    serializedVersion: 12
    m_Resolution: 2
    m_BakeResolution: 40
    m_AtlasSize: 1024
    m_AO: 0
    m_AOMaxDistance: 1
    m_CompAOExponent: 1
    m_CompAOExponentDirect: 0
    m_ExtractAmbientOcclusion: 0
    m_Padding: 2
    m_LightmapParameters: {fileID: 0}
    m_LightmapsBakeMode: 1
    m_TextureCompression: 1
    m_FinalGather: 0
    m_FinalGatherFiltering: 1
    m_FinalGatherRayCount: 256
    m_ReflectionCompression: 2
    m_MixedBakeMode: 2
    m_BakeBackend: 1
    m_PVRSampling: 1
    m_PVRDirectSampleCount: 32
    m_PVRSampleCount: 512
    m_PVRBounces: 2
    m_PVREnvironmentSampleCount: 256
    m_PVREnvironmentReferencePointCount: 2048
    m_PVRFilteringMode: 1
    m_PVRDenoiserTypeDirect: 1
    m_PVRDenoiserTypeIndirect: 1
    m_PVRDenoiserTypeAO: 1
    m_PVRFilterTypeDirect: 0
    m_PVRFilterTypeIndirect: 0
    m_PVRFilterTypeAO: 0
    m_PVREnvironmentMIS: 1
    m_PVRCulling: 1
    m_PVRFilteringGaussRadiusDirect: 1
    m_PVRFilteringGaussRadiusIndirect: 5
    m_PVRFilteringGaussRadiusAO: 2
    m_PVRFilteringAtrousPositionSigmaDirect: 0.5
    m_PVRFilteringAtrousPositionSigmaIndirect: 2
    m_PVRFilteringAtrousPositionSigmaAO: 1
    m_ExportTrainingData: 0
    m_TrainingDataDestination: TrainingData
    m_LightProbeSampleCountMultiplier: 4
  m_LightingDataAsset: {fileID: 0}
  m_UseShadowmask: 1
--- !u!196 &4
NavMeshSettings:
  serializedVersion: 2
  m_ObjectHideFlags: 0
  m_BuildSettings:
    serializedVersion: 2
    agentTypeID: 0
    agentRadius: 0.5
    agentHeight: 2
    agentSlope: 45
    agentClimb: 0.4
    ledgeDropHeight: 0
    maxJumpAcrossDistance: 0
    minRegionArea: 2
    manualCellSize: 0
    cellSize: 0.16666667
    manualTileSize: 0
    tileSize: 256
    accuratePlacement: 0
    debug:
      m_Flags: 0
  m_NavMeshData: {fileID: 0}
--- !u!1001 &482567715
PrefabInstance:
  m_ObjectHideFlags: 0
  serializedVersion: 2
  m_Modification:
    m_TransformParent: {fileID: 0}
    m_Modifications:
    - target: {fileID: 5944883562948899688, guid: 30692ca6cbc0d6747af235486fe01212,
        type: 3}
      propertyPath: m_Name
      value: RewindTarget
      objectReference: {fileID: 0}
    - target: {fileID: 5944883562948899690, guid: 30692ca6cbc0d6747af235486fe01212,
        type: 3}
      propertyPath: m_LocalPosition.x
      value: 0
      objectReference: {fileID: 0}
    - target: {fileID: 5944883562948899690, guid: 30692ca6cbc0d6747af235486fe01212,
        type: 3}
      propertyPath: m_LocalPosition.y
      value: 0.062
      objectReference: {fileID: 0}
    - target: {fileID: 5944883562948899690, guid: 30692ca6cbc0d6747af235486fe01212,
        type: 3}
      propertyPath: m_LocalPosition.z
      value: 0
      objectReference: {fileID: 0}
    - target: {fileID: 5944883562948899690, guid: 30692ca6cbc0d6747af235486fe01212,
        type: 3}
      propertyPath: m_LocalRotation.x
      value: 0
      objectReference: {fileID: 0}
    - target: {fileID: 5944883562948899690, guid: 30692ca6cbc0d6747af235486fe01212,
        type: 3}
      propertyPath: m_LocalRotation.y
      value: 0
      objectReference: {fileID: 0}
    - target: {fileID: 5944883562948899690, guid: 30692ca6cbc0d6747af235486fe01212,
        type: 3}
      propertyPath: m_LocalRotation.z
      value: 0
      objectReference: {fileID: 0}
    - target: {fileID: 5944883562948899690, guid: 30692ca6cbc0d6747af235486fe01212,
        type: 3}
      propertyPath: m_LocalRotation.w
      value: 1
      objectReference: {fileID: 0}
    - target: {fileID: 5944883562948899690, guid: 30692ca6cbc0d6747af235486fe01212,
        type: 3}
      propertyPath: m_RootOrder
      value: 5
      objectReference: {fileID: 0}
    - target: {fileID: 5944883562948899690, guid: 30692ca6cbc0d6747af235486fe01212,
        type: 3}
      propertyPath: m_LocalEulerAnglesHint.x
      value: 0
      objectReference: {fileID: 0}
    - target: {fileID: 5944883562948899690, guid: 30692ca6cbc0d6747af235486fe01212,
        type: 3}
      propertyPath: m_LocalEulerAnglesHint.y
      value: 0
      objectReference: {fileID: 0}
    - target: {fileID: 5944883562948899690, guid: 30692ca6cbc0d6747af235486fe01212,
        type: 3}
      propertyPath: m_LocalEulerAnglesHint.z
      value: 0
      objectReference: {fileID: 0}
    m_RemovedComponents: []
  m_SourcePrefab: {fileID: 100100000, guid: 30692ca6cbc0d6747af235486fe01212, type: 3}
--- !u!1001 &584659889
PrefabInstance:
  m_ObjectHideFlags: 0
  serializedVersion: 2
  m_Modification:
    m_TransformParent: {fileID: 0}
    m_Modifications:
    - target: {fileID: 1070369825316907094, guid: d957b921b2ec4d842bcd33efa9b4fab7,
        type: 3}
      propertyPath: m_FontData.m_FontSize
      value: 45
      objectReference: {fileID: 0}
    - target: {fileID: 7424140411311039371, guid: d957b921b2ec4d842bcd33efa9b4fab7,
        type: 3}
      propertyPath: m_Name
      value: Canvas
      objectReference: {fileID: 0}
    - target: {fileID: 7424140411311039374, guid: d957b921b2ec4d842bcd33efa9b4fab7,
        type: 3}
      propertyPath: m_LocalPosition.x
      value: 0
      objectReference: {fileID: 0}
    - target: {fileID: 7424140411311039374, guid: d957b921b2ec4d842bcd33efa9b4fab7,
        type: 3}
      propertyPath: m_LocalPosition.y
      value: 0
      objectReference: {fileID: 0}
    - target: {fileID: 7424140411311039374, guid: d957b921b2ec4d842bcd33efa9b4fab7,
        type: 3}
      propertyPath: m_LocalPosition.z
      value: 0
      objectReference: {fileID: 0}
    - target: {fileID: 7424140411311039374, guid: d957b921b2ec4d842bcd33efa9b4fab7,
        type: 3}
      propertyPath: m_LocalRotation.x
      value: 0
      objectReference: {fileID: 0}
    - target: {fileID: 7424140411311039374, guid: d957b921b2ec4d842bcd33efa9b4fab7,
        type: 3}
      propertyPath: m_LocalRotation.y
      value: 0
      objectReference: {fileID: 0}
    - target: {fileID: 7424140411311039374, guid: d957b921b2ec4d842bcd33efa9b4fab7,
        type: 3}
      propertyPath: m_LocalRotation.z
      value: 0
      objectReference: {fileID: 0}
    - target: {fileID: 7424140411311039374, guid: d957b921b2ec4d842bcd33efa9b4fab7,
        type: 3}
      propertyPath: m_LocalRotation.w
      value: 1
      objectReference: {fileID: 0}
    - target: {fileID: 7424140411311039374, guid: d957b921b2ec4d842bcd33efa9b4fab7,
        type: 3}
      propertyPath: m_RootOrder
      value: 3
      objectReference: {fileID: 0}
    - target: {fileID: 7424140411311039374, guid: d957b921b2ec4d842bcd33efa9b4fab7,
        type: 3}
      propertyPath: m_LocalEulerAnglesHint.x
      value: 0
      objectReference: {fileID: 0}
    - target: {fileID: 7424140411311039374, guid: d957b921b2ec4d842bcd33efa9b4fab7,
        type: 3}
      propertyPath: m_LocalEulerAnglesHint.y
      value: 0
      objectReference: {fileID: 0}
    - target: {fileID: 7424140411311039374, guid: d957b921b2ec4d842bcd33efa9b4fab7,
        type: 3}
      propertyPath: m_LocalEulerAnglesHint.z
      value: 0
      objectReference: {fileID: 0}
    - target: {fileID: 7424140411311039374, guid: d957b921b2ec4d842bcd33efa9b4fab7,
        type: 3}
      propertyPath: m_AnchoredPosition.x
      value: 0
      objectReference: {fileID: 0}
    - target: {fileID: 7424140411311039374, guid: d957b921b2ec4d842bcd33efa9b4fab7,
        type: 3}
      propertyPath: m_AnchoredPosition.y
      value: 0
      objectReference: {fileID: 0}
    - target: {fileID: 7424140411311039374, guid: d957b921b2ec4d842bcd33efa9b4fab7,
        type: 3}
      propertyPath: m_SizeDelta.x
      value: 0
      objectReference: {fileID: 0}
    - target: {fileID: 7424140411311039374, guid: d957b921b2ec4d842bcd33efa9b4fab7,
        type: 3}
      propertyPath: m_SizeDelta.y
      value: 0
      objectReference: {fileID: 0}
    - target: {fileID: 7424140411311039374, guid: d957b921b2ec4d842bcd33efa9b4fab7,
        type: 3}
      propertyPath: m_AnchorMin.x
      value: 0
      objectReference: {fileID: 0}
    - target: {fileID: 7424140411311039374, guid: d957b921b2ec4d842bcd33efa9b4fab7,
        type: 3}
      propertyPath: m_AnchorMin.y
      value: 0
      objectReference: {fileID: 0}
    - target: {fileID: 7424140411311039374, guid: d957b921b2ec4d842bcd33efa9b4fab7,
        type: 3}
      propertyPath: m_AnchorMax.x
      value: 0
      objectReference: {fileID: 0}
    - target: {fileID: 7424140411311039374, guid: d957b921b2ec4d842bcd33efa9b4fab7,
        type: 3}
      propertyPath: m_AnchorMax.y
      value: 0
      objectReference: {fileID: 0}
    - target: {fileID: 7424140411311039374, guid: d957b921b2ec4d842bcd33efa9b4fab7,
        type: 3}
      propertyPath: m_Pivot.x
      value: 0
      objectReference: {fileID: 0}
    - target: {fileID: 7424140411311039374, guid: d957b921b2ec4d842bcd33efa9b4fab7,
        type: 3}
      propertyPath: m_Pivot.y
      value: 0
      objectReference: {fileID: 0}
    - target: {fileID: 7424140412731187164, guid: d957b921b2ec4d842bcd33efa9b4fab7,
        type: 3}
      propertyPath: m_Color.r
      value: 1
      objectReference: {fileID: 0}
    - target: {fileID: 7424140412731187164, guid: d957b921b2ec4d842bcd33efa9b4fab7,
        type: 3}
      propertyPath: m_Color.g
      value: 1
      objectReference: {fileID: 0}
    - target: {fileID: 7424140412731187164, guid: d957b921b2ec4d842bcd33efa9b4fab7,
        type: 3}
      propertyPath: m_Color.b
      value: 1
      objectReference: {fileID: 0}
    m_RemovedComponents: []
  m_SourcePrefab: {fileID: 100100000, guid: d957b921b2ec4d842bcd33efa9b4fab7, type: 3}
--- !u!1001 &1096288377
PrefabInstance:
  m_ObjectHideFlags: 0
  serializedVersion: 2
  m_Modification:
    m_TransformParent: {fileID: 0}
    m_Modifications:
    - target: {fileID: 6881184791994972364, guid: dcd91cd6c3b32394e91f8a5d9a7abe84,
        type: 3}
      propertyPath: m_LocalPosition.x
      value: 0.12
      objectReference: {fileID: 0}
    - target: {fileID: 6881184791994972364, guid: dcd91cd6c3b32394e91f8a5d9a7abe84,
        type: 3}
      propertyPath: m_LocalPosition.y
      value: -1.13
      objectReference: {fileID: 0}
    - target: {fileID: 6881184791994972364, guid: dcd91cd6c3b32394e91f8a5d9a7abe84,
        type: 3}
      propertyPath: m_LocalPosition.z
      value: 0
      objectReference: {fileID: 0}
    - target: {fileID: 6881184791994972364, guid: dcd91cd6c3b32394e91f8a5d9a7abe84,
        type: 3}
      propertyPath: m_LocalRotation.x
      value: 0
      objectReference: {fileID: 0}
    - target: {fileID: 6881184791994972364, guid: dcd91cd6c3b32394e91f8a5d9a7abe84,
        type: 3}
      propertyPath: m_LocalRotation.y
      value: 0
      objectReference: {fileID: 0}
    - target: {fileID: 6881184791994972364, guid: dcd91cd6c3b32394e91f8a5d9a7abe84,
        type: 3}
      propertyPath: m_LocalRotation.z
      value: 0
      objectReference: {fileID: 0}
    - target: {fileID: 6881184791994972364, guid: dcd91cd6c3b32394e91f8a5d9a7abe84,
        type: 3}
      propertyPath: m_LocalRotation.w
      value: 1
      objectReference: {fileID: 0}
    - target: {fileID: 6881184791994972364, guid: dcd91cd6c3b32394e91f8a5d9a7abe84,
        type: 3}
      propertyPath: m_RootOrder
      value: 1
      objectReference: {fileID: 0}
    - target: {fileID: 6881184791994972364, guid: dcd91cd6c3b32394e91f8a5d9a7abe84,
        type: 3}
      propertyPath: m_LocalEulerAnglesHint.x
      value: 0
      objectReference: {fileID: 0}
    - target: {fileID: 6881184791994972364, guid: dcd91cd6c3b32394e91f8a5d9a7abe84,
        type: 3}
      propertyPath: m_LocalEulerAnglesHint.y
      value: 0
      objectReference: {fileID: 0}
    - target: {fileID: 6881184791994972364, guid: dcd91cd6c3b32394e91f8a5d9a7abe84,
        type: 3}
      propertyPath: m_LocalEulerAnglesHint.z
      value: 0
      objectReference: {fileID: 0}
    - target: {fileID: 6881184791994972366, guid: dcd91cd6c3b32394e91f8a5d9a7abe84,
        type: 3}
      propertyPath: m_Name
      value: Ground
      objectReference: {fileID: 0}
    m_RemovedComponents: []
  m_SourcePrefab: {fileID: 100100000, guid: dcd91cd6c3b32394e91f8a5d9a7abe84, type: 3}
--- !u!1001 &1420989327
PrefabInstance:
  m_ObjectHideFlags: 0
  serializedVersion: 2
  m_Modification:
    m_TransformParent: {fileID: 0}
    m_Modifications:
    - target: {fileID: 3231710287695744074, guid: 4a712cdb0fa80ab4c9a354f5bbf05a5a,
        type: 3}
      propertyPath: m_LocalPosition.x
      value: 0.18987396
      objectReference: {fileID: 0}
    - target: {fileID: 3231710287695744074, guid: 4a712cdb0fa80ab4c9a354f5bbf05a5a,
        type: 3}
      propertyPath: m_LocalPosition.y
      value: 0.063290596
      objectReference: {fileID: 0}
    - target: {fileID: 3231710287695744074, guid: 4a712cdb0fa80ab4c9a354f5bbf05a5a,
        type: 3}
      propertyPath: m_LocalPosition.z
      value: 0
      objectReference: {fileID: 0}
    - target: {fileID: 3231710287695744074, guid: 4a712cdb0fa80ab4c9a354f5bbf05a5a,
        type: 3}
      propertyPath: m_LocalRotation.x
      value: 0
      objectReference: {fileID: 0}
    - target: {fileID: 3231710287695744074, guid: 4a712cdb0fa80ab4c9a354f5bbf05a5a,
        type: 3}
      propertyPath: m_LocalRotation.y
      value: 0
      objectReference: {fileID: 0}
    - target: {fileID: 3231710287695744074, guid: 4a712cdb0fa80ab4c9a354f5bbf05a5a,
        type: 3}
      propertyPath: m_LocalRotation.z
      value: 0
      objectReference: {fileID: 0}
    - target: {fileID: 3231710287695744074, guid: 4a712cdb0fa80ab4c9a354f5bbf05a5a,
        type: 3}
      propertyPath: m_LocalRotation.w
      value: 1
      objectReference: {fileID: 0}
    - target: {fileID: 3231710287695744074, guid: 4a712cdb0fa80ab4c9a354f5bbf05a5a,
        type: 3}
      propertyPath: m_RootOrder
      value: 2
      objectReference: {fileID: 0}
    - target: {fileID: 3231710287695744074, guid: 4a712cdb0fa80ab4c9a354f5bbf05a5a,
        type: 3}
      propertyPath: m_LocalEulerAnglesHint.x
      value: 0
      objectReference: {fileID: 0}
    - target: {fileID: 3231710287695744074, guid: 4a712cdb0fa80ab4c9a354f5bbf05a5a,
        type: 3}
      propertyPath: m_LocalEulerAnglesHint.y
      value: 0
      objectReference: {fileID: 0}
    - target: {fileID: 3231710287695744074, guid: 4a712cdb0fa80ab4c9a354f5bbf05a5a,
        type: 3}
      propertyPath: m_LocalEulerAnglesHint.z
      value: 0
      objectReference: {fileID: 0}
    - target: {fileID: 3231710287695744086, guid: 4a712cdb0fa80ab4c9a354f5bbf05a5a,
        type: 3}
      propertyPath: m_Name
      value: Player
      objectReference: {fileID: 0}
    m_RemovedComponents: []
  m_SourcePrefab: {fileID: 100100000, guid: 4a712cdb0fa80ab4c9a354f5bbf05a5a, type: 3}
--- !u!1001 &1655371090
PrefabInstance:
  m_ObjectHideFlags: 0
  serializedVersion: 2
  m_Modification:
    m_TransformParent: {fileID: 0}
    m_Modifications:
    - target: {fileID: 6569452138452169457, guid: db41684f326c8c04492819a2b8a1be2f,
        type: 3}
      propertyPath: m_Name
      value: Master
      objectReference: {fileID: 0}
    - target: {fileID: 6569452138452169462, guid: db41684f326c8c04492819a2b8a1be2f,
        type: 3}
      propertyPath: m_LocalPosition.x
      value: 0
      objectReference: {fileID: 0}
    - target: {fileID: 6569452138452169462, guid: db41684f326c8c04492819a2b8a1be2f,
        type: 3}
      propertyPath: m_LocalPosition.y
      value: 0
      objectReference: {fileID: 0}
    - target: {fileID: 6569452138452169462, guid: db41684f326c8c04492819a2b8a1be2f,
        type: 3}
      propertyPath: m_LocalPosition.z
      value: 0
      objectReference: {fileID: 0}
    - target: {fileID: 6569452138452169462, guid: db41684f326c8c04492819a2b8a1be2f,
        type: 3}
      propertyPath: m_LocalRotation.x
      value: 0
      objectReference: {fileID: 0}
    - target: {fileID: 6569452138452169462, guid: db41684f326c8c04492819a2b8a1be2f,
        type: 3}
      propertyPath: m_LocalRotation.y
      value: 0
      objectReference: {fileID: 0}
    - target: {fileID: 6569452138452169462, guid: db41684f326c8c04492819a2b8a1be2f,
        type: 3}
      propertyPath: m_LocalRotation.z
      value: 0
      objectReference: {fileID: 0}
    - target: {fileID: 6569452138452169462, guid: db41684f326c8c04492819a2b8a1be2f,
        type: 3}
      propertyPath: m_LocalRotation.w
      value: 1
      objectReference: {fileID: 0}
    - target: {fileID: 6569452138452169462, guid: db41684f326c8c04492819a2b8a1be2f,
        type: 3}
      propertyPath: m_RootOrder
      value: 4
      objectReference: {fileID: 0}
    - target: {fileID: 6569452138452169462, guid: db41684f326c8c04492819a2b8a1be2f,
        type: 3}
      propertyPath: m_LocalEulerAnglesHint.x
      value: 0
      objectReference: {fileID: 0}
    - target: {fileID: 6569452138452169462, guid: db41684f326c8c04492819a2b8a1be2f,
        type: 3}
      propertyPath: m_LocalEulerAnglesHint.y
      value: 0
      objectReference: {fileID: 0}
    - target: {fileID: 6569452138452169462, guid: db41684f326c8c04492819a2b8a1be2f,
        type: 3}
      propertyPath: m_LocalEulerAnglesHint.z
      value: 0
      objectReference: {fileID: 0}
    m_RemovedComponents: []
  m_SourcePrefab: {fileID: 100100000, guid: db41684f326c8c04492819a2b8a1be2f, type: 3}
--- !u!1001 &1848980560
PrefabInstance:
  m_ObjectHideFlags: 0
  serializedVersion: 2
  m_Modification:
    m_TransformParent: {fileID: 0}
    m_Modifications:
    - target: {fileID: 1775344308757864461, guid: 0b8ce7ae56850fb4db36a6ac1df6cc0b,
        type: 3}
      propertyPath: m_LocalPosition.x
      value: 0
      objectReference: {fileID: 0}
    - target: {fileID: 1775344308757864461, guid: 0b8ce7ae56850fb4db36a6ac1df6cc0b,
        type: 3}
      propertyPath: m_LocalPosition.y
      value: 0
      objectReference: {fileID: 0}
    - target: {fileID: 1775344308757864461, guid: 0b8ce7ae56850fb4db36a6ac1df6cc0b,
        type: 3}
      propertyPath: m_LocalPosition.z
      value: -100
      objectReference: {fileID: 0}
    - target: {fileID: 1775344308757864461, guid: 0b8ce7ae56850fb4db36a6ac1df6cc0b,
        type: 3}
      propertyPath: m_LocalRotation.x
      value: -0
      objectReference: {fileID: 0}
    - target: {fileID: 1775344308757864461, guid: 0b8ce7ae56850fb4db36a6ac1df6cc0b,
        type: 3}
      propertyPath: m_LocalRotation.y
      value: -0
      objectReference: {fileID: 0}
    - target: {fileID: 1775344308757864461, guid: 0b8ce7ae56850fb4db36a6ac1df6cc0b,
        type: 3}
      propertyPath: m_LocalRotation.z
      value: -0
      objectReference: {fileID: 0}
    - target: {fileID: 1775344308757864461, guid: 0b8ce7ae56850fb4db36a6ac1df6cc0b,
        type: 3}
      propertyPath: m_LocalRotation.w
      value: 1
      objectReference: {fileID: 0}
    - target: {fileID: 1775344308757864461, guid: 0b8ce7ae56850fb4db36a6ac1df6cc0b,
        type: 3}
      propertyPath: m_RootOrder
      value: 0
      objectReference: {fileID: 0}
    - target: {fileID: 1775344308757864461, guid: 0b8ce7ae56850fb4db36a6ac1df6cc0b,
        type: 3}
      propertyPath: m_LocalEulerAnglesHint.x
      value: 0
      objectReference: {fileID: 0}
    - target: {fileID: 1775344308757864461, guid: 0b8ce7ae56850fb4db36a6ac1df6cc0b,
        type: 3}
      propertyPath: m_LocalEulerAnglesHint.y
      value: 0
      objectReference: {fileID: 0}
    - target: {fileID: 1775344308757864461, guid: 0b8ce7ae56850fb4db36a6ac1df6cc0b,
        type: 3}
      propertyPath: m_LocalEulerAnglesHint.z
      value: 0
      objectReference: {fileID: 0}
    - target: {fileID: 1775344308757864689, guid: 0b8ce7ae56850fb4db36a6ac1df6cc0b,
        type: 3}
      propertyPath: m_Name
      value: Main Camera
      objectReference: {fileID: 0}
    m_RemovedComponents: []
  m_SourcePrefab: {fileID: 100100000, guid: 0b8ce7ae56850fb4db36a6ac1df6cc0b, type: 3}
--- !u!1001 &7337411900469666839
PrefabInstance:
  m_ObjectHideFlags: 0
  serializedVersion: 2
  m_Modification:
    m_TransformParent: {fileID: 0}
    m_Modifications:
    - target: {fileID: 7337411900322380473, guid: 09ed5e602a8296d4284e3e9d57d73fc3,
        type: 3}
      propertyPath: m_LocalPosition.x
      value: 22.613
      objectReference: {fileID: 0}
    - target: {fileID: 7337411900322380473, guid: 09ed5e602a8296d4284e3e9d57d73fc3,
        type: 3}
      propertyPath: m_LocalPosition.y
      value: -2.153
      objectReference: {fileID: 0}
    - target: {fileID: 7337411900322380473, guid: 09ed5e602a8296d4284e3e9d57d73fc3,
        type: 3}
      propertyPath: m_LocalPosition.z
      value: 0
      objectReference: {fileID: 0}
    - target: {fileID: 7337411900322380473, guid: 09ed5e602a8296d4284e3e9d57d73fc3,
        type: 3}
      propertyPath: m_LocalRotation.x
      value: 0
      objectReference: {fileID: 0}
    - target: {fileID: 7337411900322380473, guid: 09ed5e602a8296d4284e3e9d57d73fc3,
        type: 3}
      propertyPath: m_LocalRotation.y
      value: 0
      objectReference: {fileID: 0}
    - target: {fileID: 7337411900322380473, guid: 09ed5e602a8296d4284e3e9d57d73fc3,
        type: 3}
      propertyPath: m_LocalRotation.z
      value: 0
      objectReference: {fileID: 0}
    - target: {fileID: 7337411900322380473, guid: 09ed5e602a8296d4284e3e9d57d73fc3,
        type: 3}
      propertyPath: m_LocalRotation.w
      value: 1
      objectReference: {fileID: 0}
    - target: {fileID: 7337411900322380473, guid: 09ed5e602a8296d4284e3e9d57d73fc3,
        type: 3}
      propertyPath: m_RootOrder
      value: 6
      objectReference: {fileID: 0}
    - target: {fileID: 7337411900322380473, guid: 09ed5e602a8296d4284e3e9d57d73fc3,
        type: 3}
      propertyPath: m_LocalEulerAnglesHint.x
      value: 0
      objectReference: {fileID: 0}
    - target: {fileID: 7337411900322380473, guid: 09ed5e602a8296d4284e3e9d57d73fc3,
        type: 3}
      propertyPath: m_LocalEulerAnglesHint.y
      value: 0
      objectReference: {fileID: 0}
    - target: {fileID: 7337411900322380473, guid: 09ed5e602a8296d4284e3e9d57d73fc3,
        type: 3}
      propertyPath: m_LocalEulerAnglesHint.z
      value: 0
      objectReference: {fileID: 0}
    - target: {fileID: 7337411900322380475, guid: 09ed5e602a8296d4284e3e9d57d73fc3,
        type: 3}
      propertyPath: m_Name
      value: Background
      objectReference: {fileID: 0}
    m_RemovedComponents: []
  m_SourcePrefab: {fileID: 100100000, guid: 09ed5e602a8296d4284e3e9d57d73fc3, type: 3}
